{
	"data": [
		{
			"type": "Standar",
			"title": "1 Kavling Camp Ground dengan berbagai fasilitas umum",
			"capacity": "1-2",
			"kavlingSlot": 8,
			"facilities": [
				"Tenda",
				"Api Unggun",
				"Tidak Bisa Refund",
				"Tidak Bisa Reschedule",
				"Baca Kebijakan Pembatalan"
			],
			"price": 4000000,
			"discountPrice": 2500000
		},
		{
			"type": "Deluxe",
			"title": "1 Kavling Camp Ground dengan berbagai fasilitas lengkap",
			"capacity": "6-12",
			"kavlingSlot": 1,
			"facilities": [
				"Tenda",
				"Api Unggun",
				"Kasur & Bantal",
				"Alat BBQ",
				"Kursi Meja",
				"Tidak Bisa Refund",
				"Tidak Bisa Reschedule",
				"Baca Kebijakan Pembatalan"
			],
			"price": 12000000,
			"discountPrice": 9500000
		}
	]
}
